%YAML 1.1
%TAG !u! tag:unity3d.com,2011:
--- !u!74 &7400000
AnimationClip:
  m_ObjectHideFlags: 0
  m_CorrespondingSourceObject: {fileID: 0}
  m_PrefabInstance: {fileID: 0}
  m_PrefabAsset: {fileID: 0}
  m_Name: PlayerIdle
  serializedVersion: 6
  m_Legacy: 0
  m_Compressed: 0
  m_UseHighQualityCurve: 1
  m_RotationCurves: []
  m_CompressedRotationCurves: []
  m_EulerCurves: []
  m_PositionCurves: []
  m_ScaleCurves: []
  m_FloatCurves: []
  m_PPtrCurves:
  - curve:
    - time: 0
      value: {fileID: 21300000, guid: c8649fbbcc189694eb390943917182d5, type: 3}
    - time: 0.016666668
      value: {fileID: 21300000, guid: 986d31a736e6980409f496b4af3c183b, type: 3}
    - time: 0.033333335
      value: {fileID: 21300000, guid: 8ab4b3a4f17db8140a12b0f85e8520c1, type: 3}
    - time: 0.05
      value: {fileID: 21300000, guid: a38d8f2417dbdec4da8bf866da44a606, type: 3}
    - time: 0.06666667
      value: {fileID: 21300000, guid: 73a794c9b5bb0294b8e0b465b74a370a, type: 3}
    - time: 0.083333336
      value: {fileID: 21300000, guid: 1c3d42debc7abb2439938f496207ae5b, type: 3}
    - time: 0.1
      value: {fileID: 21300000, guid: cb8f063ddcbbc6c4c8e1bb3d6f2b9b61, type: 3}
    - time: 0.11666667
      value: {fileID: 21300000, guid: 71632e0aeb18e614fa9c3e2b119790de, type: 3}
    - time: 0.13333334
      value: {fileID: 21300000, guid: a686778503f36a54ca8c55fbecbcdcc2, type: 3}
    - time: 0.15
      value: {fileID: 21300000, guid: f663ff8d760c23746bd649e8bf9d82dd, type: 3}
    - time: 0.16666667
      value: {fileID: 21300000, guid: d22a6af26118b4e4d9be223642ec3082, type: 3}
    - time: 0.18333334
      value: {fileID: 21300000, guid: 616628f224df4d74b8d2e7f92a12ca19, type: 3}
    - time: 0.2
      value: {fileID: 21300000, guid: 31758a360729db44382b5ab554865097, type: 3}
    - time: 0.21666667
      value: {fileID: 21300000, guid: 6200632ccc99efe419fa9a6c2e7784db, type: 3}
    - time: 0.23333333
      value: {fileID: 21300000, guid: ede53160682ddc74fb1127ecfbd88d3b, type: 3}
    - time: 0.25
      value: {fileID: 21300000, guid: 5243b67fdeb67114bbdcc7da36fca073, type: 3}
    - time: 0.26666668
      value: {fileID: 21300000, guid: 8fd14f309c1f75f49a8090d6d23674bf, type: 3}
    - time: 0.28333333
      value: {fileID: 21300000, guid: b30fb1f9715175b4ca88acc6bbd5bc9d, type: 3}
    - time: 0.3
      value: {fileID: 21300000, guid: c2d6998166fe58f4f948f779234ef3e4, type: 3}
    - time: 0.31666666
      value: {fileID: 21300000, guid: b54a926ecfd76ae4bac5609e2a8ac47e, type: 3}
    attribute: m_Sprite
    path: 
    classID: 212
    script: {fileID: 0}
  m_SampleRate: 60
  m_WrapMode: 0
  m_Bounds:
    m_Center: {x: 0, y: 0, z: 0}
    m_Extent: {x: 0, y: 0, z: 0}
  m_ClipBindingConstant:
    genericBindings:
    - serializedVersion: 2
      path: 0
      attribute: 0
      script: {fileID: 0}
      typeID: 212
      customType: 23
      isPPtrCurve: 1
    pptrCurveMapping:
    - {fileID: 21300000, guid: c8649fbbcc189694eb390943917182d5, type: 3}
    - {fileID: 21300000, guid: 986d31a736e6980409f496b4af3c183b, type: 3}
    - {fileID: 21300000, guid: 8ab4b3a4f17db8140a12b0f85e8520c1, type: 3}
    - {fileID: 21300000, guid: a38d8f2417dbdec4da8bf866da44a606, type: 3}
    - {fileID: 21300000, guid: 73a794c9b5bb0294b8e0b465b74a370a, type: 3}
    - {fileID: 21300000, guid: 1c3d42debc7abb2439938f496207ae5b, type: 3}
    - {fileID: 21300000, guid: cb8f063ddcbbc6c4c8e1bb3d6f2b9b61, type: 3}
    - {fileID: 21300000, guid: 71632e0aeb18e614fa9c3e2b119790de, type: 3}
    - {fileID: 21300000, guid: a686778503f36a54ca8c55fbecbcdcc2, type: 3}
    - {fileID: 21300000, guid: f663ff8d760c23746bd649e8bf9d82dd, type: 3}
    - {fileID: 21300000, guid: d22a6af26118b4e4d9be223642ec3082, type: 3}
    - {fileID: 21300000, guid: 616628f224df4d74b8d2e7f92a12ca19, type: 3}
    - {fileID: 21300000, guid: 31758a360729db44382b5ab554865097, type: 3}
    - {fileID: 21300000, guid: 6200632ccc99efe419fa9a6c2e7784db, type: 3}
    - {fileID: 21300000, guid: ede53160682ddc74fb1127ecfbd88d3b, type: 3}
    - {fileID: 21300000, guid: 5243b67fdeb67114bbdcc7da36fca073, type: 3}
    - {fileID: 21300000, guid: 8fd14f309c1f75f49a8090d6d23674bf, type: 3}
    - {fileID: 21300000, guid: b30fb1f9715175b4ca88acc6bbd5bc9d, type: 3}
    - {fileID: 21300000, guid: c2d6998166fe58f4f948f779234ef3e4, type: 3}
    - {fileID: 21300000, guid: b54a926ecfd76ae4bac5609e2a8ac47e, type: 3}
  m_AnimationClipSettings:
    serializedVersion: 2
    m_AdditiveReferencePoseClip: {fileID: 0}
    m_AdditiveReferencePoseTime: 0
    m_StartTime: 0
    m_StopTime: 0.33333334
    m_OrientationOffsetY: 0
    m_Level: 0
    m_CycleOffset: 0
    m_HasAdditiveReferencePose: 0
    m_LoopTime: 1
    m_LoopBlend: 0
    m_LoopBlendOrientation: 0
    m_LoopBlendPositionY: 0
    m_LoopBlendPositionXZ: 0
    m_KeepOriginalOrientation: 0
    m_KeepOriginalPositionY: 1
    m_KeepOriginalPositionXZ: 0
    m_HeightFromFeet: 0
    m_Mirror: 0
  m_EditorCurves: []
  m_EulerEditorCurves: []
  m_HasGenericRootTransform: 0
  m_HasMotionFloatCurves: 0
  m_Events: []
